mappings — mappings • Argus
…
    A list of assumptions

    Details

    List of Mappings

    Examples

library(argus)
a<-mappings()
a # will give full list of mappings

#> $mappingGCAMBasins
#> # A tibble: 235 x 2
#>    subRegionMap             subRegion 
#>    <chr>                    <chr>     
#>  1 Arctic_Ocean_Islands     ArcticIsl 
#>  2 Northwest_Territories    NWTerr    
#>  3 Siberia_North_Coast      SiberiaN  
#>  4 Siberia_West_Coast       SiberiaW  
#>  5 Kara_Sea_Coast           KaraSea   
#>  6 Lena                     LenaR     
#>  7 Pacific_and_Arctic_Coast PacArctic 
#>  8 Scandinavia_North_Coast  ScndnvN   
#>  9 Russia_Barents_Sea_Coast BarentsSea
#> 10 Mackenzie                Mackenzie 
#> # … with 225 more rows
#> 
#> $mapParamQuery
#> # A tibble: 88 x 4
#>    group  param                            query     mapPalette
#>    <chr>  <chr>                            <list>    <chr>     
#>  1 energy energyPrimaryByFuelEJ            <chr [1]> pal_hot   
#>  2 energy energyPrimaryRefLiqProdEJ        <chr [1]> pal_hot   
#>  3 energy energyFinalConsumBySecEJ         <chr [1]> pal_hot   
#>  4 energy energyFinalByFuelBySectorEJ      <chr [1]> pal_hot   
#>  5 energy energyFinalSubsecByFuelTranspEJ  <chr [1]> pal_hot   
#>  6 energy energyFinalSubsecByFuelBuildEJ   <chr [1]> pal_hot   
#>  7 energy energyFinalSubsecByFuelIndusEJ   <chr [1]> pal_hot   
#>  8 energy energyFinalSubsecBySectorBuildEJ <chr [1]> pal_hot   
#>  9 energy energyFinalConsumByIntlShpAvEJ   <chr [1]> pal_hot   
#> 10 energy energyPrimaryByFuelMTOE          <chr [1]> pal_hot   
#> # … with 78 more rows
#> 
#> $countryToGCAMReg32
#> # A tibble: 288 x 4
#>    region_code ctry_code region         ctry_name      
#>          <dbl>     <dbl> <chr>          <chr>          
#>  1          29       238 Southeast Asia Fiji           
#>  2          23       103 Russia         Russia         
#>  3          13        17 EU-15          Wallis & Futuna
#>  4           6       223 Australia_NZ   New Zealand    
#>  5           1       150 USA            United States  
#>  6          29        40 Southeast Asia Midway Is.     
#>  7          29        16 Southeast Asia Tonga          
#>  8          29        38 Southeast Asia Kiribati       
#>  9          29        14 Southeast Asia Samoa          
#> 10          29        15 Southeast Asia Tokelau        
#> # … with 278 more rows
…
